%YAML 1.1
%TAG !u! tag:unity3d.com,2011:
--- !u!162 &1
EditorUserSettings:
  m_ObjectHideFlags: 0
  serializedVersion: 4
  m_ConfigSettings:
    RecentlyUsedSceneGuid-0:
      value: 060252005d560d080f5c597043700c4442164a292d2974367e2d4863bab6663a
      flags: 0
    RecentlyUsedSceneGuid-1:
      value: 5a57005150075f5f5b585b72427b0a4447164b7b2e7972602c7b4931b0e2656a
      flags: 0
    RecentlyUsedSceneGuid-2:
      value: 55020c5f03075003585d5c71487a0e4447151e7e7e797166747e1e31b3b3663d
      flags: 0
    RecentlyUsedScenePath-0:
      value: 224247031146467f180d071609335a5f3c1e1f2d202d691428241212f1f3312cf1a81ce0e03d33390627f73d092e0d3ac1090c05f3451f05181ae4
      flags: 0
    RecentlyUsedScenePath-1:
      value: 22424703114646700c1a0d2c116c74110216162b623d28393930
      flags: 0
    RecentlyUsedScenePath-2:
      value: 22424703114646790c1c1e2b15311f20171413650e293422242c0f03e3e33f0be1e238eca92f31352d1b
      flags: 0
    RecentlyUsedScenePath-3:
      value: 2242470311464673021a4c061f241f2404021b216c093523283d5200e1e53a3dacf238e0f323
      flags: 0
    RecentlyUsedScenePath-4:
      value: 22424703114646791f0107271e155a1302180a650027310022250410e3f20439e1ec79ccff3b322c3507a1290a371526
      flags: 0
    RecentlyUsedScenePath-5:
      value: 22424703114646791f0107271e155a1302180a650027310022250410e3f20439e1ec79c8eb367f1d2a11ea2817701431fb1e10
      flags: 0
    RecentlyUsedScenePath-6:
      value: 224247031146467a1b0f182302306031181e152b3821293e3e163f3ae0ec3107c6e23be6a81b293d2d03fd2f3b1f0f36ff0b1d02f90519343307ff0214c034161cca56d014c10b05
      flags: 0
    RecentlyUsedScenePath-7:
      value: 22424703114646680e0b0227036c6c111b07142f1f2b233e2867083debf42d
      flags: 0
    RecentlyUsedScenePath-8:
      value: 22424703114646680e0b0227036c72111f19563f22213229
      flags: 0
    vcSharedLogLevel:
      value: 0d5e400f0650
      flags: 0
  m_VCAutomaticAdd: 1
  m_VCDebugCom: 0
  m_VCDebugCmd: 0
  m_VCDebugOut: 0
  m_SemanticMergeMode: 2
  m_DesiredImportWorkerCount: 4
  m_StandbyImportWorkerCount: 2
  m_IdleImportWorkerShutdownDelay: 60000
  m_VCShowFailedCheckout: 1
  m_VCOverwriteFailedCheckoutAssets: 1
  m_VCProjectOverlayIcons: 1
  m_VCHierarchyOverlayIcons: 1
  m_VCOtherOverlayIcons: 1
  m_VCAllowAsyncUpdate: 1
  m_ArtifactGarbageCollection: 1
